{
  "devToolsPort": 19003,
  "expoServerPort": 19004,
  "packagerPort": 19005,
  "packagerPid": 78469,
  "expoServerNgrokUrl": "https://4z-w8j.mitajunior.dharuraapp.exp.direct",
  "packagerNgrokUrl": "https://packager.4z-w8j.mitajunior.dharuraapp.exp.direct",
  "ngrokPid": 78478
}